<svg width="32" height="32" viewBox="0 0 32 32" fill="none" xmlns="http://www.w3.org/2000/svg">
<path d="M16 0L18.8284 13.1716L32 16L18.8284 18.8284L16 32L13.1716 18.8284L0 16L13.1716 13.1716L16 0Z" fill="#191123"/>
</svg>
